{
    "compilerOptions": {
        "target": "es2018",
        // "allowSyntheticDefaultImports": false,
        "baseUrl": "./",
        "paths": {
            "Utilis/*": [
                "utilis/*"
            ],
            "Img/*": [
                "public/img/*"
            ],
            "Components/*": [
                "src/components/*"
            ],
            "Containers/*": [
                "src/containers/*"
            ],
            ],
            "Elements/*": [
                "src/elements/*"
            ],
            "Assets/*": [
                "/utilis/assets/*"
            ],
            "Redux/*": [
                "src/redux/*"
            ]
        }
    },
    "exclude": [
        "node_modules",
        "dist",
        "bower_components",
        "tmp",
        "temp",
        "jspm_packages"
    ]
}